Lab 3: COVID-19 Data
…
colorado_data %>%
  select(fip_codes, CTYNAME, per_capita_cumulative_cases, per_capita_new_cases, per_capita_new_deaths)

# A tibble: 64 × 5
   fip_codes CTYNAME           per_capita_cumulative_cases per_capita_new_cases
   <chr>     <chr>                                   <dbl>                <dbl>
 1 08001     Adams County                             57.1                0.242
 2 08003     Alamosa County                           51.7                0.249
 3 08005     Arapahoe County                          47.3                0.220
 4 08007     Archuleta County                         36.8                0.198
 5 08009     Baca County                              45.7                0.202
 6 08011     Bent County                             124.                 0.412
 7 08013     Boulder County                           36.3                0.177
 8 08014     Broomfield County                        32.8                0.164
 9 08015     Chaffee County                           44.3                0.204
10 08017     Cheyenne County                          39.7                0.173
# ℹ 54 more rows
# ℹ 1 more variable: per_capita_new_deaths <dbl>
…
08075
Logan County
104,461
21,006
497,291.3

watch_list_counties <- county_new_cases %>%
  filter(new_cases_per_100k >= 100)

watch_list_counties

# A tibble: 64 × 5
   fip_codes CTYNAME           new_cases population new_cases_per_100k
   <chr>     <chr>                 <dbl>      <dbl>              <dbl>
 1 08001     Adams County        1918730     523544            366489.
 2 08003     Alamosa County        63643      16579            383877.
 3 08005     Arapahoe County     2202990     656855            335385.
 4 08007     Archuleta County      40767      13806            295285.
 5 08009     Baca County           11901       3490            341003.
 6 08011     Bent County           35685       5339            668384.
 7 08013     Boulder County       934823     327084            285805.
 8 08014     Broomfield County    192960      75411            255878.
 9 08015     Chaffee County        65829      19741            333463.
10 08017     Cheyenne County        4508       1719            262245.
# ℹ 54 more rows
…
